Chapter 17 - Perceptual metaphor
…
COCA <- filter(COCA, Dimension == 'no')
nrow(COCA)  # 3,733

## [1] 3733

sum(COCA$Freq)  # 21,679

## [1] 21679

Check look and eye, which should be excluded.

filter(COCA, Noun == 'look') %>% arrange(desc(Freq))

## # A tibble: 124 x 23
##    Word     Noun   Freq Modality Instrument POS   PropertyBritish
##    <chr>    <chr> <int> <chr>    <chr>      <chr> <chr>          
##  1 hard     look    493 Visual   no         Noun  hard           
##  2 fresh    look    182 Visual   no         Noun  fresh          
##  3 strange  look    106 Visual   no         Noun  strange        
##  4 sharp    look     89 Visual   no         Noun  sharp          
##  5 dark     look     45 Visual   no         Noun  dark           
##  6 dirty    look     43 Visual   no         Noun  dirty          
##  7 sour     look     43 Visual   no         Noun  sour           
##  8 polished look     38 Visual   no         Noun  polished       
##  9 clean    look     29 Visual   no         Noun  clean          
## 10 soft     look     22 Visual   no         Noun  soft           
## # ... with 114 more rows, and 16 more variables: DominantModality <chr>,
## #   VisualStrengthMean <dbl>, HapticStrengthMean <dbl>,
## #   AuditoryStrengthMean <dbl>, GustatoryStrengthMean <dbl>,
## #   OlfactoryStrengthMean <dbl>, ModalityExclusivity <dbl>,
## #   Classes3 <int>, Uncertainty3 <dbl>, Classes <int>, Uncertainty <dbl>,
## #   Class <chr>, Color <chr>, Image <chr>, Same <chr>, Dimension <chr>

filter(COCA, Noun == 'eye') %>% arrange(desc(Freq))

## # A tibble: 67 x 23
##    Word   Noun   Freq Modality Instrument POS   PropertyBritish
##    <chr>  <chr> <int> <chr>    <chr>      <chr> <chr>          
##  1 black  eye     153 Visual   no         Noun  black          
##  2 sharp  eye     148 Visual   no         Noun  sharp          
##  3 red    eye      81 Visual   no         Noun  red            
##  4 dry    eye      53 Visual   no         Noun  dry            
##  5 green  eye      35 Visual   no         Noun  green          
##  6 blue   eye      31 Visual   no         Noun  blue           
##  7 smoky  eye      31 Visual   no         Noun  smoky          
##  8 cold   eye      30 Visual   no         Noun  cold           
##  9 yellow eye      25 Visual   no         Noun  yellow         
## 10 fresh  eye      18 Visual   no         Noun  fresh          
## # ... with 57 more rows, and 16 more variables: DominantModality <chr>,
## #   VisualStrengthMean <dbl>, HapticStrengthMean <dbl>,
## #   AuditoryStrengthMean <dbl>, GustatoryStrengthMean <dbl>,
## #   OlfactoryStrengthMean <dbl>, ModalityExclusivity <dbl>,
## #   Classes3 <int>, Uncertainty3 <dbl>, Classes <int>, Uncertainty <dbl>,
## #   Class <chr>, Color <chr>, Image <chr>, Same <chr>, Dimension <chr>
…
